-------------------------------------------------------------------------------
Test set: QDTS.HelloWorldTest
-------------------------------------------------------------------------------
Tests run: 1, Failures: 0, Errors: 0, Skipped: 0, Time elapsed: 0.114 s - in QDTS.HelloWorldTest
